project/simulation/qsim/ERV24.msim.vcd
$comment
	File created using the following command:
		vcd file ERV24.msim.vcd -direction
$end
$date
	Sat Jun  8 22:18:19 2024
$end
$version
	ModelSim Version 2020.1
$end
$timescale
	1ps
$end

$scope module IDA_test_vlg_vec_tst $end
$var reg 2 ! access_size [1:0] $end
$var reg 32 " rawaddress [31:0] $end
$var reg 32 # rawdata [31:0] $end
$var reg 1 $ rw $end
$var wire 1 % access_flag $end
$var wire 1 & aligned_flag $end
$var wire 1 ' byte_en [3] $end
$var wire 1 ( byte_en [2] $end
$var wire 1 ) byte_en [1] $end
$var wire 1 * byte_en [0] $end
$var wire 1 + memadd [31] $end
$var wire 1 , memadd [30] $end
$var wire 1 - memadd [29] $end
$var wire 1 . memadd [28] $end
$var wire 1 / memadd [27] $end
$var wire 1 0 memadd [26] $end
$var wire 1 1 memadd [25] $end
$var wire 1 2 memadd [24] $end
$var wire 1 3 memadd [23] $end
$var wire 1 4 memadd [22] $end
$var wire 1 5 memadd [21] $end
$var wire 1 6 memadd [20] $end
$var wire 1 7 memadd [19] $end
$var wire 1 8 memadd [18] $end
$var wire 1 9 memadd [17] $end
$var wire 1 : memadd [16] $end
$var wire 1 ; memadd [15] $end
$var wire 1 < memadd [14] $end
$var wire 1 = memadd [13] $end
$var wire 1 > memadd [12] $end
$var wire 1 ? memadd [11] $end
$var wire 1 @ memadd [10] $end
$var wire 1 A memadd [9] $end
$var wire 1 B memadd [8] $end
$var wire 1 C memadd [7] $end
$var wire 1 D memadd [6] $end
$var wire 1 E memadd [5] $end
$var wire 1 F memadd [4] $end
$var wire 1 G memadd [3] $end
$var wire 1 H memadd [2] $end
$var wire 1 I memadd [1] $end
$var wire 1 J memadd [0] $end
$var wire 1 K memdata [31] $end
$var wire 1 L memdata [30] $end
$var wire 1 M memdata [29] $end
$var wire 1 N memdata [28] $end
$var wire 1 O memdata [27] $end
$var wire 1 P memdata [26] $end
$var wire 1 Q memdata [25] $end
$var wire 1 R memdata [24] $end
$var wire 1 S memdata [23] $end
$var wire 1 T memdata [22] $end
$var wire 1 U memdata [21] $end
$var wire 1 V memdata [20] $end
$var wire 1 W memdata [19] $end
$var wire 1 X memdata [18] $end
$var wire 1 Y memdata [17] $end
$var wire 1 Z memdata [16] $end
$var wire 1 [ memdata [15] $end
$var wire 1 \ memdata [14] $end
$var wire 1 ] memdata [13] $end
$var wire 1 ^ memdata [12] $end
$var wire 1 _ memdata [11] $end
$var wire 1 ` memdata [10] $end
$var wire 1 a memdata [9] $end
$var wire 1 b memdata [8] $end
$var wire 1 c memdata [7] $end
$var wire 1 d memdata [6] $end
$var wire 1 e memdata [5] $end
$var wire 1 f memdata [4] $end
$var wire 1 g memdata [3] $end
$var wire 1 h memdata [2] $end
$var wire 1 i memdata [1] $end
$var wire 1 j memdata [0] $end

$scope module i1 $end
$var wire 1 k gnd $end
$var wire 1 l vcc $end
$var wire 1 m unknown $end
$var tri1 1 n devclrn $end
$var tri1 1 o devpor $end
$var tri1 1 p devoe $end
$var wire 1 q aligned_flag~output_o $end
$var wire 1 r access_flag~output_o $end
$var wire 1 s byte_en[3]~output_o $end
$var wire 1 t byte_en[2]~output_o $end
$var wire 1 u byte_en[1]~output_o $end
$var wire 1 v byte_en[0]~output_o $end
$var wire 1 w memadd[31]~output_o $end
$var wire 1 x memadd[30]~output_o $end
$var wire 1 y memadd[29]~output_o $end
$var wire 1 z memadd[28]~output_o $end
$var wire 1 { memadd[27]~output_o $end
$var wire 1 | memadd[26]~output_o $end
$var wire 1 } memadd[25]~output_o $end
$var wire 1 ~ memadd[24]~output_o $end
$var wire 1 !! memadd[23]~output_o $end
$var wire 1 "! memadd[22]~output_o $end
$var wire 1 #! memadd[21]~output_o $end
$var wire 1 $! memadd[20]~output_o $end
$var wire 1 %! memadd[19]~output_o $end
$var wire 1 &! memadd[18]~output_o $end
$var wire 1 '! memadd[17]~output_o $end
$var wire 1 (! memadd[16]~output_o $end
$var wire 1 )! memadd[15]~output_o $end
$var wire 1 *! memadd[14]~output_o $end
$var wire 1 +! memadd[13]~output_o $end
$var wire 1 ,! memadd[12]~output_o $end
$var wire 1 -! memadd[11]~output_o $end
$var wire 1 .! memadd[10]~output_o $end
$var wire 1 /! memadd[9]~output_o $end
$var wire 1 0! memadd[8]~output_o $end
$var wire 1 1! memadd[7]~output_o $end
$var wire 1 2! memadd[6]~output_o $end
$var wire 1 3! memadd[5]~output_o $end
$var wire 1 4! memadd[4]~output_o $end
$var wire 1 5! memadd[3]~output_o $end
$var wire 1 6! memadd[2]~output_o $end
$var wire 1 7! memadd[1]~output_o $end
$var wire 1 8! memadd[0]~output_o $end
$var wire 1 9! memdata[31]~output_o $end
$var wire 1 :! memdata[30]~output_o $end
$var wire 1 ;! memdata[29]~output_o $end
$var wire 1 <! memdata[28]~output_o $end
$var wire 1 =! memdata[27]~output_o $end
$var wire 1 >! memdata[26]~output_o $end
$var wire 1 ?! memdata[25]~output_o $end
$var wire 1 @! memdata[24]~output_o $end
$var wire 1 A! memdata[23]~output_o $end
$var wire 1 B! memdata[22]~output_o $end
$var wire 1 C! memdata[21]~output_o $end
$var wire 1 D! memdata[20]~output_o $end
$var wire 1 E! memdata[19]~output_o $end
$var wire 1 F! memdata[18]~output_o $end
$var wire 1 G! memdata[17]~output_o $end
$var wire 1 H! memdata[16]~output_o $end
$var wire 1 I! memdata[15]~output_o $end
$var wire 1 J! memdata[14]~output_o $end
$var wire 1 K! memdata[13]~output_o $end
$var wire 1 L! memdata[12]~output_o $end
$var wire 1 M! memdata[11]~output_o $end
$var wire 1 N! memdata[10]~output_o $end
$var wire 1 O! memdata[9]~output_o $end
$var wire 1 P! memdata[8]~output_o $end
$var wire 1 Q! memdata[7]~output_o $end
$var wire 1 R! memdata[6]~output_o $end
$var wire 1 S! memdata[5]~output_o $end
$var wire 1 T! memdata[4]~output_o $end
$var wire 1 U! memdata[3]~output_o $end
$var wire 1 V! memdata[2]~output_o $end
$var wire 1 W! memdata[1]~output_o $end
$var wire 1 X! memdata[0]~output_o $end
$var wire 1 Y! rawaddress[0]~input_o $end
$var wire 1 Z! access_size[0]~input_o $end
$var wire 1 [! access_size[1]~input_o $end
$var wire 1 \! rawaddress[1]~input_o $end
$var wire 1 ]! inst|Mux20~0_combout $end
$var wire 1 ^! inst|Decoder1~0_combout $end
$var wire 1 _! inst|Mux16~0_combout $end
$var wire 1 `! inst|Mux17~0_combout $end
$var wire 1 a! inst|Mux18~0_combout $end
$var wire 1 b! inst|Mux19~0_combout $end
$var wire 1 c! rawaddress[31]~input_o $end
$var wire 1 d! rawaddress[30]~input_o $end
$var wire 1 e! rawaddress[29]~input_o $end
$var wire 1 f! rawaddress[28]~input_o $end
$var wire 1 g! rawaddress[27]~input_o $end
$var wire 1 h! rawaddress[26]~input_o $end
$var wire 1 i! rawaddress[25]~input_o $end
$var wire 1 j! rawaddress[24]~input_o $end
$var wire 1 k! rawaddress[23]~input_o $end
$var wire 1 l! rawaddress[22]~input_o $end
$var wire 1 m! rawaddress[21]~input_o $end
$var wire 1 n! rawaddress[20]~input_o $end
$var wire 1 o! rawaddress[19]~input_o $end
$var wire 1 p! rawaddress[18]~input_o $end
$var wire 1 q! rawaddress[17]~input_o $end
$var wire 1 r! rawaddress[16]~input_o $end
$var wire 1 s! rawaddress[15]~input_o $end
$var wire 1 t! rawaddress[14]~input_o $end
$var wire 1 u! rawaddress[13]~input_o $end
$var wire 1 v! rawaddress[12]~input_o $end
$var wire 1 w! rawaddress[11]~input_o $end
$var wire 1 x! rawaddress[10]~input_o $end
$var wire 1 y! rawaddress[9]~input_o $end
$var wire 1 z! rawaddress[8]~input_o $end
$var wire 1 {! rawaddress[7]~input_o $end
$var wire 1 |! rawaddress[6]~input_o $end
$var wire 1 }! rawaddress[5]~input_o $end
$var wire 1 ~! rawaddress[4]~input_o $end
$var wire 1 !" rawaddress[3]~input_o $end
$var wire 1 "" rawaddress[2]~input_o $end
$var wire 1 #" rawdata[7]~input_o $end
$var wire 1 $" rawdata[15]~input_o $end
$var wire 1 %" rawdata[31]~input_o $end
$var wire 1 &" inst|Mux21~2_combout $end
$var wire 1 '" inst|Mux21~3_combout $end
$var wire 1 (" rw~input_o $end
$var wire 1 )" inst|Mux21~6_combout $end
$var wire 1 *" inst|Mux21~4_combout $end
$var wire 1 +" rawdata[6]~input_o $end
$var wire 1 ," rawdata[30]~input_o $end
$var wire 1 -" rawdata[14]~input_o $end
$var wire 1 ." inst|Mux22~0_combout $end
$var wire 1 /" inst|Mux22~1_combout $end
$var wire 1 0" rawdata[29]~input_o $end
$var wire 1 1" rawdata[13]~input_o $end
$var wire 1 2" inst|Mux23~0_combout $end
$var wire 1 3" rawdata[5]~input_o $end
$var wire 1 4" inst|Mux23~1_combout $end
$var wire 1 5" rawdata[4]~input_o $end
$var wire 1 6" rawdata[12]~input_o $end
$var wire 1 7" rawdata[28]~input_o $end
$var wire 1 8" inst|Mux24~0_combout $end
$var wire 1 9" inst|Mux24~1_combout $end
$var wire 1 :" rawdata[3]~input_o $end
$var wire 1 ;" rawdata[11]~input_o $end
$var wire 1 <" rawdata[27]~input_o $end
$var wire 1 =" inst|Mux25~0_combout $end
$var wire 1 >" inst|Mux25~1_combout $end
$var wire 1 ?" rawdata[2]~input_o $end
$var wire 1 @" rawdata[26]~input_o $end
$var wire 1 A" rawdata[10]~input_o $end
$var wire 1 B" inst|Mux26~0_combout $end
$var wire 1 C" inst|Mux26~1_combout $end
$var wire 1 D" rawdata[9]~input_o $end
$var wire 1 E" rawdata[25]~input_o $end
$var wire 1 F" inst|Mux27~0_combout $end
$var wire 1 G" rawdata[1]~input_o $end
$var wire 1 H" inst|Mux27~1_combout $end
$var wire 1 I" rawdata[0]~input_o $end
$var wire 1 J" rawdata[24]~input_o $end
$var wire 1 K" rawdata[8]~input_o $end
$var wire 1 L" inst|Mux28~0_combout $end
$var wire 1 M" inst|Mux28~1_combout $end
$var wire 1 N" inst|Mux21~5_combout $end
$var wire 1 O" rawdata[23]~input_o $end
$var wire 1 P" inst|Mux29~2_combout $end
$var wire 1 Q" inst|Mux17~1_combout $end
$var wire 1 R" inst|Mux32~3_combout $end
$var wire 1 S" inst|Mux29~3_combout $end
$var wire 1 T" inst|Mux0~0_combout $end
$var wire 1 U" inst|Mux32~2_combout $end
$var wire 1 V" inst|Mux29~4_combout $end
$var wire 1 W" inst|Mux29~5_combout $end
$var wire 1 X" inst|Mux1~0_combout $end
$var wire 1 Y" inst|Mux22~2_combout $end
$var wire 1 Z" rawdata[22]~input_o $end
$var wire 1 [" inst|Mux30~2_combout $end
$var wire 1 \" inst|Mux30~3_combout $end
$var wire 1 ]" inst|Mux30~4_combout $end
$var wire 1 ^" inst|Mux30~5_combout $end
$var wire 1 _" rawdata[21]~input_o $end
$var wire 1 `" inst|Mux31~2_combout $end
$var wire 1 a" inst|Mux23~2_combout $end
$var wire 1 b" inst|Mux31~3_combout $end
$var wire 1 c" inst|Mux2~0_combout $end
$var wire 1 d" inst|Mux31~4_combout $end
$var wire 1 e" inst|Mux31~5_combout $end
$var wire 1 f" inst|Mux3~0_combout $end
$var wire 1 g" inst|Mux24~2_combout $end
$var wire 1 h" rawdata[20]~input_o $end
$var wire 1 i" inst|Mux32~4_combout $end
$var wire 1 j" inst|Mux32~5_combout $end
$var wire 1 k" inst|Mux32~6_combout $end
$var wire 1 l" inst|Mux32~7_combout $end
$var wire 1 m" inst|Mux4~0_combout $end
$var wire 1 n" rawdata[19]~input_o $end
$var wire 1 o" inst|Mux33~2_combout $end
$var wire 1 p" inst|Mux25~2_combout $end
$var wire 1 q" inst|Mux33~3_combout $end
$var wire 1 r" inst|Mux33~4_combout $end
$var wire 1 s" inst|Mux33~5_combout $end
$var wire 1 t" inst|Mux5~0_combout $end
$var wire 1 u" inst|Mux26~2_combout $end
$var wire 1 v" rawdata[18]~input_o $end
$var wire 1 w" inst|Mux34~2_combout $end
$var wire 1 x" inst|Mux34~3_combout $end
$var wire 1 y" inst|Mux34~4_combout $end
$var wire 1 z" inst|Mux34~5_combout $end
$var wire 1 {" rawdata[17]~input_o $end
$var wire 1 |" inst|Mux35~2_combout $end
$var wire 1 }" inst|Mux27~2_combout $end
$var wire 1 ~" inst|Mux35~3_combout $end
$var wire 1 !# inst|Mux6~0_combout $end
$var wire 1 "# inst|Mux35~4_combout $end
$var wire 1 ## inst|Mux35~5_combout $end
$var wire 1 $# inst|Mux7~0_combout $end
$var wire 1 %# inst|Mux28~2_combout $end
$var wire 1 &# rawdata[16]~input_o $end
$var wire 1 '# inst|Mux36~2_combout $end
$var wire 1 (# inst|Mux36~3_combout $end
$var wire 1 )# inst|Mux36~4_combout $end
$var wire 1 *# inst|Mux36~5_combout $end
$var wire 1 +# inst|Mux37~2_combout $end
$var wire 1 ,# inst|Mux37~3_combout $end
$var wire 1 -# inst|Mux43~2_combout $end
$var wire 1 .# inst|Mux37~4_combout $end
$var wire 1 /# inst|Mux37~5_combout $end
$var wire 1 0# inst|Mux38~2_combout $end
$var wire 1 1# inst|Mux38~3_combout $end
$var wire 1 2# inst|Mux38~4_combout $end
$var wire 1 3# inst|Mux38~5_combout $end
$var wire 1 4# inst|Mux39~2_combout $end
$var wire 1 5# inst|Mux39~3_combout $end
$var wire 1 6# inst|Mux39~4_combout $end
$var wire 1 7# inst|Mux39~5_combout $end
$var wire 1 8# inst|Mux40~2_combout $end
$var wire 1 9# inst|Mux40~3_combout $end
$var wire 1 :# inst|Mux40~4_combout $end
$var wire 1 ;# inst|Mux40~5_combout $end
$var wire 1 <# inst|Mux41~2_combout $end
$var wire 1 =# inst|Mux41~3_combout $end
$var wire 1 ># inst|Mux41~4_combout $end
$var wire 1 ?# inst|Mux41~5_combout $end
$var wire 1 @# inst|Mux42~2_combout $end
$var wire 1 A# inst|Mux42~3_combout $end
$var wire 1 B# inst|Mux42~4_combout $end
$var wire 1 C# inst|Mux42~5_combout $end
$var wire 1 D# inst|Mux43~3_combout $end
$var wire 1 E# inst|Mux43~4_combout $end
$var wire 1 F# inst|Mux43~5_combout $end
$var wire 1 G# inst|Mux43~6_combout $end
$var wire 1 H# inst|Mux44~2_combout $end
$var wire 1 I# inst|Mux44~3_combout $end
$var wire 1 J# inst|Mux44~4_combout $end
$var wire 1 K# inst|Mux44~5_combout $end
$var wire 1 L# inst|Mux25~3_combout $end
$var wire 1 M# inst|Mux45~3_combout $end
$var wire 1 N# inst|Mux45~2_combout $end
$var wire 1 O# inst|Mux46~0_combout $end
$var wire 1 P# inst|Mux47~0_combout $end
$var wire 1 Q# inst|Mux48~0_combout $end
$var wire 1 R# inst|Mux49~0_combout $end
$var wire 1 S# inst|Mux50~0_combout $end
$var wire 1 T# inst|Mux51~0_combout $end
$var wire 1 U# inst|Mux52~0_combout $end
$upscope $end
$upscope $end
$enddefinitions $end
#0
$dumpvars
b0 !
b0 "
b10000111011001010100001100100001 #
0$
1%
0&
0*
0)
0(
0'
0J
0I
0H
0G
0F
0E
0D
0C
0B
0A
0@
0?
0>
0=
0<
0;
0:
09
08
07
06
05
04
03
02
01
00
0/
0.
0-
0,
0+
0j
0i
0h
0g
0f
0e
0d
0c
0b
0a
0`
0_
0^
0]
0\
0[
0Z
0Y
0X
0W
0V
0U
0T
0S
0R
0Q
0P
0O
0N
0M
0L
0K
0k
1l
xm
1n
1o
1p
0q
1r
0s
0t
0u
0v
0w
0x
0y
0z
0{
0|
0}
0~
0!!
0"!
0#!
0$!
0%!
0&!
0'!
0(!
0)!
0*!
0+!
0,!
0-!
0.!
0/!
00!
01!
02!
03!
04!
05!
06!
07!
08!
09!
0:!
0;!
0<!
0=!
0>!
0?!
0@!
0A!
0B!
0C!
0D!
0E!
0F!
0G!
0H!
0I!
0J!
0K!
0L!
0M!
0N!
0O!
0P!
0Q!
0R!
0S!
0T!
0U!
0V!
0W!
0X!
0Y!
0Z!
0[!
0\!
0]!
0^!
0_!
0`!
0a!
1b!
0c!
0d!
0e!
0f!
0g!
0h!
0i!
0j!
0k!
0l!
0m!
0n!
0o!
0p!
0q!
0r!
0s!
0t!
0u!
0v!
0w!
0x!
0y!
0z!
0{!
0|!
0}!
0~!
0!"
0""
0#"
0$"
1%"
0&"
0'"
0("
1)"
0*"
0+"
0,"
1-"
0."
0/"
00"
01"
02"
13"
04"
05"
06"
07"
08"
09"
0:"
0;"
0<"
0="
0>"
0?"
1@"
0A"
0B"
0C"
1D"
1E"
0F"
0G"
0H"
1I"
1J"
1K"
0L"
0M"
0N"
0O"
0P"
0Q"
0R"
0S"
0T"
0U"
0V"
0W"
1X"
0Y"
1Z"
1["
0\"
0]"
0^"
1_"
1`"
0a"
0b"
0c"
0d"
0e"
0f"
0g"
0h"
0i"
0j"
0k"
0l"
0m"
0n"
0o"
0p"
0q"
0r"
0s"
0t"
0u"
1v"
1w"
0x"
0y"
0z"
0{"
0|"
0}"
0~"
1!#
0"#
0##
1$#
0%#
1&#
1'#
0(#
0)#
0*#
0+#
0,#
0-#
0.#
0/#
10#
01#
02#
03#
04#
05#
06#
07#
08#
09#
0:#
0;#
0<#
0=#
0>#
0?#
0@#
0A#
0B#
0C#
1D#
0E#
0F#
0G#
1H#
0I#
0J#
0K#
1L#
1M#
0N#
0O#
0P#
0Q#
0R#
0S#
0T#
0U#
$end
#25000
b1 !
1Z!
0M#
1%#
1a"
0)"
0b!
1^!
0r
1v
1I#
1(#
15#
1b"
1*
0%
1U#
1P#
1M"
14"
1;!
1@!
1S!
1X!
1J#
1)#
16#
1d"
1j
1e
1R
1M
1K#
1*#
17#
1e"
1C!
1K!
1H!
1P!
1b
1Z
1]
1U
#50000
b11 !
b10 !
0Z!
1[!
1-#
0%#
0a"
1Q"
1L"
1F"
1."
1'"
1a!
0M"
04"
0;!
0@!
1u
06#
0(#
0b"
1E#
1A#
1=#
19#
11#
1,#
1)"
1)
0R
0M
1M"
1H"
1/"
1:!
1?!
1@!
0)#
0d"
1F#
12#
1R
1Q
1L
07#
0M"
0H"
0/"
0:!
0?!
0@!
0K!
0]
0R
0Q
0L
0*#
0e"
1G#
13#
1J!
1O!
0C!
0H!
0Z
0U
1a
1\
#75000
b11 !
1Z!
0-#
1%#
1a"
1R"
0Q"
1B"
0."
0'"
1&"
1`!
1_!
1s
1t
1B#
1>#
1:#
16#
1.#
1(#
05#
1b"
0A#
0=#
09#
0,#
1x"
1\"
0)"
1(
1'
1)#
06#
1d"
0B#
0>#
0:#
0.#
1y"
1]"
1C#
1?#
1;#
17#
1/#
1M"
1H"
1C"
1*"
19!
1>!
1?!
1@!
1I!
1K!
1L!
1M!
1N!
1`
1_
1^
1]
1[
1R
1Q
1P
1K
1*#
07#
1e"
0C#
0?#
0;#
0/#
1z"
1^"
1B!
1F!
0I!
0L!
0M!
0N!
1C!
0K!
1H!
1Z
0]
1U
0`
0_
0^
0[
1X
1T
#100000
b1 "
b1 !
b0 !
0Z!
0[!
1Y!
1M#
0%#
0a"
0R"
0L"
0F"
0B"
1)"
0&"
1b!
0^!
0L#
0H#
0D#
00#
0'#
0w"
0`"
0["
0a!
0`!
0_!
14"
1;!
0s
0t
0u
1r
0v
0I#
0(#
0b"
0E#
01#
0x"
0\"
0*
1%
0)
0(
0'
1M
0U#
0P#
0M"
0H"
0C"
04"
0*"
09!
0;!
0>!
0?!
0@!
0S!
0X!
0J#
0)#
0d"
0F#
02#
0y"
0]"
0j
0e
0R
0Q
0P
0M
0K
0K#
0*#
0e"
0G#
03#
0z"
0^"
0B!
0F!
0J!
0O!
0C!
0H!
0P!
0b
0Z
0U
0a
0\
0X
0T
#125000
b1 !
1Z!
0M#
1%#
1a"
0)"
1^!
1a!
1u
0r
1I#
1(#
15#
1b"
0%
1)
1U#
1P#
1M"
14"
1;!
1@!
1S!
1X!
1J#
1)#
16#
1d"
1j
1e
1R
1M
1K#
1*#
17#
1e"
1C!
1K!
1H!
1P!
1b
1Z
1]
1U
#150000
b11 !
b10 !
0Z!
1[!
1M#
1-#
0%#
0a"
1U"
1R"
1Q"
1L"
1F"
1."
1'"
1`!
0M"
04"
0;!
0@!
1t
06#
0I#
05#
0d"
1~"
1x"
1q"
1j"
1\"
1S"
1)"
1(
0R
0M
0U#
0P#
1M"
1H"
1/"
1:!
1?!
1@!
0S!
0X!
16#
1"#
1]"
0j
0e
1R
1Q
1L
07#
0e"
0M"
0H"
0/"
0:!
0?!
0@!
0C!
0K!
0]
0U
0R
0Q
0L
17#
1##
1^"
1B!
1G!
1K!
1]
1Y
1T
#175000
b11 !
1Z!
0-#
1%#
1a"
0U"
0Q"
1B"
0."
1&"
0a!
0`!
1]!
1q
0t
0u
0J#
06#
0(#
0b"
1y"
1r"
1k"
1d"
1V"
0~"
0x"
0q"
0j"
0\"
0S"
0)
0(
1&
0)#
0d"
0"#
0y"
0r"
0k"
0]"
0V"
0K#
07#
1z"
1s"
1l"
1e"
1W"
1A!
1C!
1D!
1E!
1F!
0K!
0P!
0b
0]
1X
1W
1V
1U
1S
0*#
0e"
0##
0z"
0s"
0l"
0^"
0W"
0A!
0B!
0D!
0E!
0F!
0G!
0C!
0H!
0Z
0U
0Y
0X
0W
0V
0T
0S
#200000
b11 "
b10 "
b1 !
b0 !
0Z!
0[!
0Y!
1\!
0%#
0a"
0R"
0L"
0F"
0B"
0'"
0&"
0^!
0$#
0!#
0X"
0]!
0q
1r
1%
0&
#225000
b1 !
1Z!
0M#
1%#
1a"
0)"
1^!
1`!
1t
0r
1I#
1(#
15#
1b"
0%
1(
1U#
1P#
1M"
14"
1;!
1@!
1S!
1X!
1J#
1)#
16#
1d"
1j
1e
1R
1M
1K#
1*#
17#
1e"
1C!
1K!
1H!
1P!
1b
1Z
1]
1U
#250000
b11 !
b10 !
0Z!
1[!
1M#
1-#
0%#
0a"
1U"
1Q"
1L"
1F"
1."
1_!
0M"
04"
0;!
0@!
1s
0J#
06#
0(#
0b"
0)#
0d"
1E#
1A#
1=#
19#
11#
1,#
1'
0R
0M
0U#
0P#
1M"
1H"
1/"
1:!
1?!
1@!
0S!
0X!
1)#
1d"
0j
0e
1R
1Q
1L
0K#
07#
0*#
0e"
0C!
0H!
0K!
0P!
0b
0]
0Z
0U
1*#
1e"
1C!
1H!
1Z
1U
#275000
b11 !
1Z!
0-#
1%#
1a"
0U"
1R"
0Q"
1B"
0."
1'"
1&"
0`!
0_!
1]!
1q
0s
0t
1J#
1F#
1B#
1>#
1:#
16#
12#
1.#
0I#
05#
0)#
0d"
0E#
0A#
0=#
09#
01#
0,#
1)"
0(
0'
1&
1C"
0/"
1*"
19!
0:!
1>!
0J#
06#
0F#
0B#
0>#
0:#
02#
0.#
1P
0L
1K
1K#
1G#
1C#
1?#
1;#
17#
13#
1/#
0*#
0e"
0M"
0H"
0C"
0*"
09!
0>!
0?!
0@!
0C!
0H!
1I!
1J!
1K!
1L!
1M!
1N!
1O!
1P!
1b
1a
1`
1_
1^
1]
1\
1[
0Z
0U
0R
0Q
0P
0K
0K#
07#
0G#
0C#
0?#
0;#
03#
0/#
0I!
0J!
0L!
0M!
0N!
0O!
0K!
0P!
0b
0]
0a
0`
0_
0^
0\
0[
#300000
b11 "
b1 !
b0 !
0Z!
0[!
1Y!
0%#
0a"
0R"
0L"
0F"
0B"
0'"
0&"
0^!
0]!
0q
1r
1%
0&
#325000
b1 !
1Z!
0M#
1%#
1a"
0)"
1^!
1_!
1s
0r
1I#
1(#
15#
1b"
0%
1'
1U#
1P#
1M"
14"
1;!
1@!
1S!
1X!
1J#
1)#
16#
1d"
1j
1e
1R
1M
1K#
1*#
17#
1e"
1C!
1K!
1H!
1P!
1b
1Z
1]
1U
#350000
b11 !
b10 !
0Z!
1[!
1M#
0%#
0a"
1U"
1R"
1Q"
1L"
1F"
1."
1'"
0_!
1]!
0M"
04"
0;!
0@!
1q
0s
0I#
05#
0)#
0d"
1~"
1x"
1q"
1j"
1\"
1S"
1)"
0'
1&
0R
0M
0U#
0P#
1M"
1H"
1/"
1:!
1?!
1@!
0S!
0X!
0J#
06#
0j
0e
1R
1Q
1L
0*#
0e"
0M"
0H"
0/"
0:!
0?!
0@!
0C!
0H!
0Z
0U
0R
0Q
0L
0K#
07#
0K!
0P!
0b
0]
#375000
b11 !
1Z!
1%#
1a"
0U"
0Q"
1B"
0."
1&"
0(#
0b"
1)#
1"#
1y"
1r"
1k"
1d"
1]"
1V"
0~"
0x"
0q"
0j"
0\"
0S"
0)#
0d"
0"#
0y"
0r"
0k"
0]"
0V"
1*#
1##
1z"
1s"
1l"
1e"
1^"
1W"
1A!
1B!
1C!
1D!
1E!
1F!
1G!
1H!
1Z
1Y
1X
1W
1V
1U
1T
1S
0*#
0e"
0##
0z"
0s"
0l"
0^"
0W"
0A!
0B!
0D!
0E!
0F!
0G!
0C!
0H!
0Z
0U
0Y
0X
0W
0V
0T
0S
#400000
b111 "
b101 "
b100 "
b1 !
b0 !
0Z!
0[!
0Y!
0\!
1""
16!
0%#
0a"
0R"
0L"
0F"
0B"
0'"
0&"
0^!
1L#
1H#
1D#
10#
1'#
1w"
1`"
1["
1$#
1!#
1X"
1H
0]!
0q
1r
1%
0&
#425000
b1 !
1Z!
0M#
1%#
1a"
0)"
0b!
1^!
0r
1v
1I#
1(#
15#
1b"
1*
0%
1U#
1P#
1M"
14"
1;!
1@!
1S!
1X!
1J#
1)#
16#
1d"
1j
1e
1R
1M
1K#
1*#
17#
1e"
1C!
1K!
1H!
1P!
1b
1Z
1]
1U
#450000
b11 !
b10 !
0Z!
1[!
1-#
0%#
0a"
1Q"
1L"
1F"
1."
1'"
1a!
0M"
04"
0;!
0@!
1u
06#
0(#
0b"
1E#
1A#
1=#
19#
11#
1,#
1)"
1)
0R
0M
1M"
1H"
1/"
1:!
1?!
1@!
0)#
0d"
1F#
12#
1R
1Q
1L
07#
0M"
0H"
0/"
0:!
0?!
0@!
0K!
0]
0R
0Q
0L
0*#
0e"
1G#
13#
1J!
1O!
0C!
0H!
0Z
0U
1a
1\
#475000
b11 !
1Z!
0-#
1%#
1a"
1R"
0Q"
1B"
0."
0'"
1&"
1`!
1_!
1s
1t
1B#
1>#
1:#
16#
1.#
1(#
05#
1b"
0A#
0=#
09#
0,#
1x"
1\"
0)"
1(
1'
1)#
06#
1d"
0B#
0>#
0:#
0.#
1y"
1]"
1C#
1?#
1;#
17#
1/#
1M"
1H"
1C"
1*"
19!
1>!
1?!
1@!
1I!
1K!
1L!
1M!
1N!
1`
1_
1^
1]
1[
1R
1Q
1P
1K
1*#
07#
1e"
0C#
0?#
0;#
0/#
1z"
1^"
1B!
1F!
0I!
0L!
0M!
0N!
1C!
0K!
1H!
1Z
0]
1U
0`
0_
0^
0[
1X
1T
#500000
b101 "
b1 !
b0 !
0Z!
0[!
1Y!
1M#
0%#
0a"
0R"
0L"
0F"
0B"
1)"
0&"
1b!
0^!
0L#
0H#
0D#
00#
0'#
0w"
0`"
0["
0a!
0`!
0_!
14"
1;!
0s
0t
0u
1r
0v
0I#
0(#
0b"
0E#
01#
0x"
0\"
0*
1%
0)
0(
0'
1M
0U#
0P#
0M"
0H"
0C"
04"
0*"
09!
0;!
0>!
0?!
0@!
0S!
0X!
0J#
0)#
0d"
0F#
02#
0y"
0]"
0j
0e
0R
0Q
0P
0M
0K
0K#
0*#
0e"
0G#
03#
0z"
0^"
0B!
0F!
0J!
0O!
0C!
0H!
0P!
0b
0Z
0U
0a
0\
0X
0T
#525000
b1 !
1Z!
0M#
1%#
1a"
0)"
1^!
1a!
1u
0r
1I#
1(#
15#
1b"
0%
1)
1U#
1P#
1M"
14"
1;!
1@!
1S!
1X!
1J#
1)#
16#
1d"
1j
1e
1R
1M
1K#
1*#
17#
1e"
1C!
1K!
1H!
1P!
1b
1Z
1]
1U
#550000
b11 !
b10 !
0Z!
1[!
1M#
1-#
0%#
0a"
1U"
1R"
1Q"
1L"
1F"
1."
1'"
1`!
0M"
04"
0;!
0@!
1t
06#
0I#
05#
0d"
1~"
1x"
1q"
1j"
1\"
1S"
1)"
1(
0R
0M
0U#
0P#
1M"
1H"
1/"
1:!
1?!
1@!
0S!
0X!
16#
1"#
1]"
0j
0e
1R
1Q
1L
07#
0e"
0M"
0H"
0/"
0:!
0?!
0@!
0C!
0K!
0]
0U
0R
0Q
0L
17#
1##
1^"
1B!
1G!
1K!
1]
1Y
1T
#575000
b11 !
1Z!
0-#
1%#
1a"
0U"
0Q"
1B"
0."
1&"
0a!
0`!
1]!
1q
0t
0u
0J#
06#
0(#
0b"
1y"
1r"
1k"
1d"
1V"
0~"
0x"
0q"
0j"
0\"
0S"
0)
0(
1&
0)#
0d"
0"#
0y"
0r"
0k"
0]"
0V"
0K#
07#
1z"
1s"
1l"
1e"
1W"
1A!
1C!
1D!
1E!
1F!
0K!
0P!
0b
0]
1X
1W
1V
1U
1S
0*#
0e"
0##
0z"
0s"
0l"
0^"
0W"
0A!
0B!
0D!
0E!
0F!
0G!
0C!
0H!
0Z
0U
0Y
0X
0W
0V
0T
0S
#600000
b111 "
b110 "
b1 !
b0 !
0Z!
0[!
0Y!
1\!
0%#
0a"
0R"
0L"
0F"
0B"
0'"
0&"
0^!
0$#
0!#
0X"
0]!
0q
1r
1%
0&
#625000
b1 !
1Z!
0M#
1%#
1a"
0)"
1^!
1`!
1t
0r
1I#
1(#
15#
1b"
0%
1(
1U#
1P#
1M"
14"
1;!
1@!
1S!
1X!
1J#
1)#
16#
1d"
1j
1e
1R
1M
1K#
1*#
17#
1e"
1C!
1K!
1H!
1P!
1b
1Z
1]
1U
